division/trace.vcd
$date
     Apr 17, 2023       14:28:44
$end

$version
              SystemC 2.3.0_pub_rev_20111121-OSCI --- Mar 13 2023 10:49:51
$end

$timescale
     1 ps
$end

$scope module SystemC $end
$var wire    1  aaa  clk       $end
$var wire    1  aab  rst       $end
$var wire   16  aac  dividend [15:0]  $end
$var wire   16  aad  divisor [15:0]  $end
$var wire    1  aae  req       $end
$var wire   16  aaf  Q [15:0]  $end
$var wire   16  aag  R [15:0]  $end
$var wire    1  aah  ready       $end
$var wire    1  aai  exception       $end
$upscope $end
$enddefinitions  $end

$comment
All initial values are dumped below at time 0 sec = 0 timescale units.
$end

$dumpvars
1aaa
1aab
b100110111111100 aac
b111101110101001 aad
0aae
b0 aaf
b0 aag
0aah
0aai
$end

#500
0aaa

#1000
1aaa
0aab

#1500
0aaa

#2000
1aaa
1aae

#2500
0aaa

#3000
1aaa
1aah

#3500
0aaa

#4000
1aaa
1aab
b1111100001100111 aac
b1111101011000110 aad
0aae
0aah

#4500
0aaa

#5000
1aaa
0aab

#5500
0aaa

#6000
1aaa
1aae

#6500
0aaa

#7000
1aaa
1aah

#7500
0aaa

#8000
1aaa
1aab
b1110010010000111 aac
b111010011000110 aad
0aae
0aah

#8500
0aaa

#9000
1aaa
0aab

#9500
0aaa

#10000
1aaa
1aae

#10500
0aaa

#11000
1aaa

#11500
0aaa

#12000
1aaa

#12500
0aaa

#13000
1aaa
b1 aaf
1aah

#13500
0aaa

#14000
1aaa
1aab
b100101101100100 aac
b1000011000101010 aad
0aae
0aah

#14500
0aaa

#15000
1aaa
0aab

#15500
0aaa

#16000
1aaa
1aae

#16500
0aaa

#17000
1aaa
b0 aaf
1aah

#17500
0aaa

#18000
1aaa
1aab
b1011101111111011 aac
b111000001001010 aad
0aae
0aah

#18500
0aaa

#19000
1aaa
0aab

#19500
0aaa

#20000
1aaa
1aae

#20500
0aaa

#21000
1aaa

#21500
0aaa

#22000
1aaa

#22500
0aaa

#23000
1aaa
b1 aaf
1aah

#23500
0aaa

#24000
1aaa
1aab
b1111010100 aac
b1000110001011000 aad
0aae
0aah

#24500
0aaa

#25000
1aaa
0aab

#25500
0aaa

#26000
1aaa
1aae

#26500
0aaa

#27000
1aaa
b0 aaf
1aah

#27500
0aaa

#28000
1aaa
1aab
b11100010000011 aac
b1011011101011100 aad
0aae
0aah

#28500
0aaa

#29000
1aaa
0aab

#29500
0aaa

#30000
1aaa
1aae

#30500
0aaa

#31000
1aaa
1aah

#31500
0aaa

#32000
1aaa
1aab
b1011011100011010 aac
b111011110110 aad
0aae
0aah

#32500
0aaa

#33000
1aaa
0aab

#33500
0aaa

#34000
1aaa
1aae

#34500
0aaa

#35000
1aaa

#35500
0aaa

#36000
1aaa

#36500
0aaa

#37000
1aaa

#37500
0aaa

#38000
1aaa

#38500
0aaa

#39000
1aaa

#39500
0aaa

#40000
1aaa

#40500
0aaa

#41000
1aaa

#41500
0aaa

#42000
1aaa

#42500
0aaa

#43000
1aaa

#43500
0aaa

#44000
1aaa
b1100 aaf
1aah

#44500
0aaa

#45000
1aaa
1aab
b110100101010001 aac
b100011100000111 aad
0aae
0aah

#45500
0aaa

#46000
1aaa
0aab

#46500
0aaa

#47000
1aaa
1aae

#47500
0aaa

#48000
1aaa

#48500
0aaa

#49000
1aaa

#49500
0aaa

#50000
1aaa
b1 aaf
1aah

#50500
0aaa

#51000
1aaa
1aab
b1000010010101110 aac
b110100110011010 aad
0aae
0aah

#51500
0aaa

#52000
1aaa
0aab

#52500
0aaa

#53000
1aaa
1aae

#53500
0aaa

#54000
1aaa

#54500
0aaa

#55000
1aaa

#55500
0aaa

#56000
1aaa
1aah

#56500
0aaa

#57000
1aaa
1aab
b1001100000100000 aac
b10101001001 aad
0aae
0aah

#57500
0aaa

#58000
1aaa
0aab

#58500
0aaa

#59000
1aaa
1aae

#59500
0aaa

#60000
1aaa

#60500
0aaa

#61000
1aaa

#61500
0aaa

#62000
1aaa

#62500
0aaa

#63000
1aaa

#63500
0aaa

#64000
1aaa

#64500
0aaa

#65000
1aaa

#65500
0aaa

#66000
1aaa

#66500
0aaa

#67000
1aaa

#67500
0aaa

#68000
1aaa

#68500
0aaa

#69000
1aaa

#69500
0aaa

#70000
1aaa

#70500
0aaa

#71000
1aaa

#71500
0aaa

#72000
1aaa

#72500
0aaa

#73000
1aaa

#73500
0aaa

#74000
1aaa

#74500
0aaa

#75000
1aaa
b11100 aaf
1aah

#75500
0aaa

#76000
1aaa
1aab
b11111001010100 aac
b1001011111011101 aad
0aae
0aah

#76500
0aaa

#77000
1aaa
0aab

#77500
0aaa

#78000
1aaa
1aae

#78500
0aaa

#79000
1aaa
b0 aaf
1aah

#79500
0aaa

#80000
1aaa
1aab
b110000101101011 aac
b1110000000011 aad
0aae
0aah

#80500
0aaa

#81000
1aaa
0aab

#81500
0aaa

#82000
1aaa
1aae

#82500
0aaa

#83000
1aaa

#83500
0aaa

#84000
1aaa

#84500
0aaa

#85000
1aaa

#85500
0aaa

#86000
1aaa

#86500
0aaa

#87000
1aaa

#87500
0aaa

#88000
1aaa
b11 aaf
1aah

#88500
0aaa

#89000
1aaa
1aab
b1101011111011110 aac
b1010110010111010 aad
0aae
0aah

#89500
0aaa

#90000
1aaa
0aab

#90500
0aaa

#91000
1aaa
1aae

#91500
0aaa

#92000
1aaa

#92500
0aaa

#93000
1aaa

#93500
0aaa

#94000
1aaa
b1 aaf
1aah

#94500
0aaa

#95000
1aaa
1aab
b11100100000001 aac
b111100000010110 aad
0aae
0aah

#95500
0aaa

#96000
1aaa
0aab

#96500
0aaa

#97000
1aaa
1aae

#97500
0aaa

#98000
1aaa
b0 aaf
1aah

#98500
0aaa

#99000
1aaa
1aab
b110100111110000 aac
b1000011011111101 aad
0aae
0aah

