division/trace.vcd
$date
     Apr 17, 2023       13:09:48
$end

$version
              SystemC 2.3.0_pub_rev_20111121-OSCI --- Mar 13 2023 10:49:51
$end

$timescale
     1 ps
$end

$scope module SystemC $end
$var wire    1  aaa  clk       $end
$var wire    1  aab  rst       $end
$var wire   16  aac  dividend [15:0]  $end
$var wire   16  aad  divisor [15:0]  $end
$var wire    1  aae  req       $end
$var wire   16  aaf  Q [15:0]  $end
$var wire   16  aag  R [15:0]  $end
$var wire    1  aah  ready       $end
$var wire    1  aai  exception       $end
$upscope $end
$enddefinitions  $end

$comment
All initial values are dumped below at time 0 sec = 0 timescale units.
$end

$dumpvars
1aaa
1aab
b100010101100111 aac
b10001111000110 aad
0aae
b0 aaf
b0 aag
0aah
0aai
$end

#500
0aaa

#1000
1aaa
0aab

#1500
0aaa

#2000
1aaa
1aae

#2500
0aaa

#3000
1aaa

#3500
0aaa

#4000
1aaa

#4500
0aaa

#5000
1aaa
b1 aaf
1aah

#5500
0aaa

#6000
1aaa

#6500
0aaa

#7000
1aaa

#7500
0aaa

#8000
1aaa

#8500
0aaa

#9000
1aaa
b10 aaf

#9500
0aaa

#10000
1aaa

#10500
0aaa

#11000
1aaa

#11500
0aaa

#12000
1aaa

#12500
0aaa

#13000
1aaa
b11 aaf

#13500
0aaa

#14000
1aaa

#14500
0aaa

#15000
1aaa

#15500
0aaa

#16000
1aaa
b1101110001010001 aac
b101110011111111 aad
0aae

#16500
0aaa

#17000
1aaa
b100 aaf

#17500
0aaa

#18000
1aaa
0aah

