division/waveform.vcd
$date
     Apr 13, 2023       15:35:03
$end

$version
              SystemC 2.3.0_pub_rev_20111121-OSCI --- Mar 13 2023 10:49:51
$end

$timescale
     1 ps
$end

$scope module SystemC $end
$var wire   16  aaa  i [15:0]  $end
$var wire   16  aab  o [15:0]  $end
$upscope $end
$enddefinitions  $end

$comment
All initial values are dumped below at time 0 sec = 0 timescale units.
$end

$dumpvars
b0 aaa
b0 aab
$end

#0
b100010101100111 aaa
b100010101100111 aab

#1000
b10001111000110 aaa
b10001111000110 aab

#2000
b1001100001101001 aaa
b1100001101001 aab

#3000
b100100001110011 aaa
b100100001110011 aab

#4000
b1101110001010001 aaa
b101110001010001 aab

#5000
b101110011111111 aaa
b101110011111111 aab

#6000
b1001010001001010 aaa
b1010001001010 aab

#7000
b101100011101100 aaa
b101100011101100 aab

#8000
b1111100101001 aaa
b1111100101001 aab

#9000
b111110011001101 aaa
b111110011001101 aab

