addition/bug_free/Nbit_full_Adder_waves.vcd
$date
     Apr 11, 2023       18:41:58
$end

$version
              SystemC 2.3.0_pub_rev_20111121-OSCI --- Mar 13 2023 10:49:51
$end

$timescale
     1 ps
$end

$scope module SystemC $end
$var wire   16  aaa  trace_a [15:0]  $end
$var wire   16  aab  trace_b [15:0]  $end
$var wire   16  aac  trace_sum [15:0]  $end
$var wire    1  aad  clk       $end
$var wire    1  aae  reset       $end
$var wire    1  aaf  c_in       $end
$var wire    1  aag  c_out       $end
$upscope $end
$enddefinitions  $end

$comment
All initial values are dumped below at time 0 sec = 0 timescale units.
$end

$dumpvars
b1111111111111111 aaa
b100100111011010 aab
b0 aac
1aad
1aae
1aaf
0aag
$end

#5000
0aad

#10000
b1011010010111111 aab
b1011010010111111 aac
1aad
0aae
1aag

#15000
0aad

#20000
b100100100100101 aab
b0 aac
1aad
1aae
0aaf
0aag

#25000
0aad

#30000
b1101101001001001 aab
1aad

#35000
0aad

#40000
b1000000010000100 aab
1aad
1aaf

#45000
0aad

#50000
b111111100000111 aab
1aad

#55000
0aad

#60000
b1110110100111100 aab
1aad
0aaf

#65000
0aad

#70000
b1110101011000 aab
1aad

#75000
0aad

#80000
b1010110100000111 aab
b1010110100000110 aac
1aad
0aae
1aag

#85000
0aad

#90000
b1001111100010000 aab
b1001111100010000 aac
1aad
1aaf

