subtraction/bug_free/N_full_Subtractor_waves.vcd
$date
     Apr 11, 2023       19:05:36
$end

$version
              SystemC 2.3.0_pub_rev_20111121-OSCI --- Mar 13 2023 10:49:51
$end

$timescale
     1 ps
$end

$scope module SystemC $end
$var wire   16  aaa  trace_a [15:0]  $end
$var wire   16  aab  trace_b [15:0]  $end
$var wire   16  aac  trace_difference [15:0]  $end
$var wire    1  aad  clk       $end
$var wire    1  aae  reset       $end
$var wire    1  aaf  c_in       $end
$var wire    1  aag  borrow_out       $end
$upscope $end
$enddefinitions  $end

$comment
All initial values are dumped below at time 0 sec = 0 timescale units.
$end

$dumpvars
b1011001111101001 aaa
b1000101101000001 aab
b10100010100111 aac
1aad
0aae
1aaf
0aag
$end

#5000
0aad

#10000
b1111011001001000 aaa
b1100010001111110 aab
b0 aac
1aad
1aae
0aaf

#15000
0aad

#20000
b1011010110011111 aaa
b101011000001001 aab
1aad

#25000
0aad

#30000
b100111000000 aaa
b1001100011111 aab
1aad

#35000
0aad

#40000
b1110100110010101 aaa
b100111101101 aab
b1101111110101000 aac
1aad
0aae

#45000
0aad

#50000
b111000100111011 aaa
b1010010011101011 aab
b1100110001001111 aac
1aad
1aaf
1aag

#55000
0aad

#60000
b10101001000010 aaa
b1001101100001001 aab
b0 aac
1aad
1aae
0aag

#65000
0aad

#70000
b1110101110100110 aaa
b1001100110010010 aab
1aad

#75000
0aad

#80000
b10010011010100 aaa
b101111001111111 aab
1aad

#85000
0aad

#90000
b10001011111101 aaa
b101110011010111 aab
b1100011000100101 aac
1aad
0aae
1aag

