subtraction/bug_free/Nbit_full_Subtractor_waves.vcd
$date
     Apr 11, 2023       19:04:26
$end

$version
              SystemC 2.3.0_pub_rev_20111121-OSCI --- Mar 13 2023 10:49:51
$end

$timescale
     1 ps
$end

$scope module SystemC $end
$var wire   16  aaa  trace_a [15:0]  $end
$var wire   16  aab  trace_b [15:0]  $end
$var wire   16  aac  trace_difference [15:0]  $end
$var wire    1  aad  clk       $end
$var wire    1  aae  reset       $end
$var wire    1  aaf  c_in       $end
$var wire    1  aag  borrow_out       $end
$upscope $end
$enddefinitions  $end

$comment
All initial values are dumped below at time 0 sec = 0 timescale units.
$end

$dumpvars
b1001100101111010 aaa
b1110101110111110 aab
b1010110110111100 aac
1aad
0aae
0aaf
1aag
$end

#5000
0aad

#10000
b1101010001110000 aaa
b1000111001011001 aab
b100011000010111 aac
1aad
0aag

#15000
0aad

#20000
b1011000110001111 aaa
b1110110001000010 aab
b1100010101001101 aac
1aad
1aag

#25000
0aad

#30000
b1000001001110101 aaa
b101100010001101 aab
b0 aac
1aad
1aae
0aag

#35000
0aad

#40000
b110100000001110 aaa
b11111000 aab
b110011100010101 aac
1aad
0aae
1aaf

#45000
0aad

#50000
b1011111000011111 aaa
b11000100001111 aab
b1000110100010000 aac
1aad
0aaf

#55000
0aad

#60000
b1000100011001110 aaa
b101110101100010 aab
b0 aac
1aad
1aae
1aaf

#65000
0aad

#70000
b10100010101100 aaa
b111001011000101 aab
b1011010111100111 aac
1aad
0aae
0aaf
1aag

#75000
0aad

#80000
b101111010000100 aaa
b11110101100010 aab
b10000100100001 aac
1aad
1aaf
0aag

#85000
0aad

#90000
b1100101110111100 aaa
b1111001000011011 aab
b1101100110100001 aac
1aad
0aaf
1aag

