division/right_shift/right_shift.vcd
$date
     Apr 13, 2023       11:50:11
$end

$version
              SystemC 2.3.0_pub_rev_20111121-OSCI --- Mar 13 2023 10:49:51
$end

$timescale
     1 ps
$end

$scope module SystemC $end
$var wire   32  aaa  input [31:0]  $end
$var wire    5  aab  shift_by [4:0]  $end
$var wire   32  aac  output [31:0]  $end
$var wire    1  aad  clk       $end
$upscope $end
$enddefinitions  $end

$comment
All initial values are dumped below at time 0 sec = 0 timescale units.
$end

$dumpvars
b1011101101011100101110100001010 aaa
b0 aab
b1011101101011100101110100001010 aac
1aad
$end

#5000
0aad

#10000
b111111100110111100000101111101 aaa
b11010 aab
b1111 aac
1aad

#15000
0aad

#20000
b1111101111011111101011001110001 aaa
b1 aab
b111110111101111110101100111000 aac
1aad

#25000
0aad

#30000
b1011000010100000000001001110011 aaa
b10100 aab
b10110000101 aac
1aad

#35000
0aad

#40000
b100001010101110111000110100111 aaa
b10111 aab
b1000010 aac
1aad

#45000
0aad

#50000
b1101000011011100111111100001000 aaa
b1101 aab
b110100001101110011 aac
1aad

#55000
0aad

#60000
b1100000110010110110011100001110 aaa
b11101 aab
b11 aac
1aad

#65000
0aad

#70000
b1011110011011111110110110101100 aaa
b10 aac
1aad

#75000
0aad

#80000
b10100001011001011010110110111 aaa
b1110 aab
b101000010110010 aac
1aad

#85000
0aad

#90000
b100001000010000111001100001100 aaa
b101 aab
b1000010000100001110011000 aac
1aad

