fir_filter/fir_vcd_waves.vcd
$date
     Mar 22, 2023       10:24:33
$end

$version
              SystemC 2.3.0_pub_rev_20111121-OSCI --- Mar 13 2023 10:49:51
$end

$timescale
     1 ps
$end

$scope module SystemC $end
$var wire    1  aaa  Reset       $end
$var wire    1  aab  clk       $end
$var wire   16  aac  inp [15:0]  $end
$var wire   16  aad  outp [15:0]  $end
$upscope $end
$enddefinitions  $end

$comment
All initial values are dumped below at time 0 sec = 0 timescale units.
$end

$dumpvars
0aaa
1aab
b0 aac
b0 aad
$end

#5000
1aaa
0aab
b11 aac

#10000
1aab

#15000
0aab
b101 aac

#20000
1aab

#25000
0aab
b0 aac

#30000
1aab

#35000
0aaa
0aab

#40000
1aab

#45000
0aab
b1 aac

#50000
1aab
b100101001 aad

#55000
0aab
b0 aac

#60000
1aab
b0 aad

#65000
1aaa
0aab
b1 aac

#70000
1aab

#75000
0aaa
0aab

#80000
1aab
b100101001 aad

#85000
0aab
b110 aac

#90000
1aab
b11011110110 aad

#95000
1aaa
0aab
b10 aac

#100000
1aab
b0 aad

#105000
0aaa
0aab
b110 aac

#110000
1aab
b11011110110 aad

#115000
0aab
b0 aac

#120000
1aab
b0 aad

#125000
1aaa
0aab
b10 aac

#130000
1aab

#135000
0aaa
0aab
b101 aac

#140000
1aab
b10111001101 aad

#145000
0aab
b0 aac

