multiplication/left_shift/left_waveform.vcd
$date
     Apr 12, 2023       18:16:50
$end

$version
              SystemC 2.3.0_pub_rev_20111121-OSCI --- Mar 13 2023 10:49:51
$end

$timescale
     1 ps
$end

$scope module SystemC $end
$var wire    1  aaa  clk       $end
$var wire    1  aab  rst       $end
$var wire   32  aac  inp [31:0]  $end
$var wire    4  aad  shift_by [3:0]  $end
$var wire   32  aae  valid [31:0]  $end
$var wire   64  aaf  out [63:0]  $end
$upscope $end
$enddefinitions  $end

$comment
All initial values are dumped below at time 0 sec = 0 timescale units.
$end

$dumpvars
1aaa
0aab
b1101011100010110100010101100111 aac
b110 aad
b1 aae
b1101011100010110100010101100111000000 aaf
$end

#5000
0aaa

#10000
1aaa
b1100110001100110100100001110011 aac
b1 aad
b11001100011001101001000011100110 aaf

#15000
0aaa

#20000
1aaa
b101010111010001001010001001010 aac
b1100 aad
b101010111010001001010001001010000000000000 aaf

#25000
0aaa

#30000
1aaa
b1000110111010000111110011001101 aac
b1010 aad
b10001101110100001111100110011010000000000 aaf

#35000
0aaa

#40000
1aaa
b101110101100010100000111110010 aac
b1011 aad
b10111010110001010000011111001000000000000 aaf

#45000
0aaa

#50000
1aaa
b1110101010001011110000101000110 aac
b1100 aad
b0 aae
b0 aaf

#55000
0aaa

#60000
1aaa
b10010001000000000100001010100 aac
b1000 aad
b1 aae
b1001000100000000010000101010000000000 aaf

#65000
0aaa

#70000
1aaa
b11111000101101110100111101000 aac
b111 aad
b111110001011011101001111010000000000 aaf

#75000
0aaa

#80000
1aaa
b10100000011100000111101110110 aac
b1010 aad
b0 aae
b0 aaf

#85000
0aaa

#90000
1aaa
b1101111011010111001001100011 aac
b11 aad
b1 aae
b1101111011010111001001100011000 aaf

