subtraction/fs_using_hs.vcd
$date
     Mar 27, 2023       10:40:58
$end

$version
              SystemC 2.3.0_pub_rev_20111121-OSCI --- Mar 13 2023 10:49:51
$end

$timescale
     1 ps
$end

$scope module SystemC $end
$var wire    1  aaaaa  a       $end
$var wire    1  aaaab  b       $end
$var wire    1  aaaac  b_in       $end
$var wire    1  aaaad  diff       $end
$var wire    1  aaaae  b_out       $end
$var wire    1  aaf  clk       $end
$var wire    1  aag  reset       $end
$upscope $end
$enddefinitions  $end

$comment
All initial values are dumped below at time 0 sec = 0 timescale units.
$end

$dumpvars
1aaaaa
1aaaab
0aaaac
0aaaad
0aaaae
1aaf
0aag
$end

#1000
1aaaac
1aaaad
1aaaae

#2000
0aaaac
0aaaad
0aaaae

#4000
0aaaaa
1aaaad
1aaaae

#5000
1aaaaa
1aaaac
0aaf

#6000
0aaaac
0aaaad
0aaaae

#7000
0aaaab
1aaaad

#8000
1aaaac
0aaaad

#9000
0aaaaa
0aaaac

