multiplication/multiplier_wave.vcd
$date
     Apr 12, 2023       18:01:35
$end

$version
              SystemC 2.3.0_pub_rev_20111121-OSCI --- Mar 13 2023 10:49:51
$end

$timescale
     1 ps
$end

$scope module SystemC $end
$var wire   32  aaa  multiplicand [31:0]  $end
$var wire   32  aab  multiplier [31:0]  $end
$var wire   96  aac  mul_opput [95:0]  $end
$var wire    1  aad  clk       $end
$var wire    1  aae  rst       $end
$upscope $end
$enddefinitions  $end

$comment
All initial values are dumped below at time 0 sec = 0 timescale units.
$end

$dumpvars
b1000011111110111011100011101010 aaa
b110110110011100100101101010101 aab
b111010001101111000011001000101111010000011001111001110110010 aac
1aad
0aae
$end

#5000
0aad

#10000
b1100101111000100001101100001101 aaa
b1101101111001110011000011000001 aab
b0 aac
1aad
1aae

#15000
0aad

#20000
b110000101110111111100001011 aaa
b1000010011011000110101100010 aab
b110010100101000110011011010100010001101011000100110110 aac
1aad
0aae

#25000
0aad

#30000
b1010101111111000010100010111111 aaa
b101111101100101000101010011011 aab
b0 aac
1aad
1aae

#35000
0aad

#40000
b1110000000011110010110100011101 aaa
b1101010110111100010011010111001 aab
b10111011000111100001101100101001011100110011111110011111110101 aac
1aad
0aae

#45000
0aad

#50000
b1110101000011101011100001000110 aaa
b1101010110100100101010000101111 aab
b0 aac
1aad
1aae

#55000
0aad

#60000
b111110100110001001000111110001 aaa
b1100111001000011100100010110110 aab
b1100100110111101001010111011001111001100011010000100101010110 aac
1aad
0aae

#65000
0aad

#70000
b110100001000101100101111011001 aaa
b1000010011001010001100101100011 aab
b0 aac
1aad
1aae

#75000
0aad

#80000
b1101101010011010000110000111111 aaa
b11011001001111001000000110001 aab
1aad

#85000
0aad

#90000
b10110011100010001111010011000 aaa
b1111110000001100111010110110101 aab
1aad

